0921/HW1/simulation/qsim/hw1.msim.vcd
$comment
	File created using the following command:
		vcd file hw1.msim.vcd -direction
$end
$date
	Thu Sep 22 21:12:39 2022
$end
$version
	ModelSim Version 10.1d
$end
$timescale
	1ps
$end
$scope module hw1_vlg_vec_tst $end
$var reg 1 ! CLK $end
$var reg 1 " en $end
$var reg 1 # rst $end
$var wire 1 $ count [3] $end
$var wire 1 % count [2] $end
$var wire 1 & count [1] $end
$var wire 1 ' count [0] $end
$var wire 1 ( sampler $end
$scope module i1 $end
$var wire 1 ) gnd $end
$var wire 1 * vcc $end
$var wire 1 + unknown $end
$var tri1 1 , devclrn $end
$var tri1 1 - devpor $end
$var tri1 1 . devoe $end
$var wire 1 / count[0]~output_o $end
$var wire 1 0 count[1]~output_o $end
$var wire 1 1 count[2]~output_o $end
$var wire 1 2 count[3]~output_o $end
$var wire 1 3 CLK~input_o $end
$var wire 1 4 CLK~inputclkctrl_outclk $end
$var wire 1 5 rst~input_o $end
$var wire 1 6 en~input_o $end
$var wire 1 7 count~0_combout $end
$var wire 1 8 count[0]~reg0_q $end
$var wire 1 9 count~1_combout $end
$var wire 1 : count[1]~reg0_q $end
$var wire 1 ; count~2_combout $end
$var wire 1 < count~3_combout $end
$var wire 1 = count[2]~reg0_q $end
$var wire 1 > Add0~0_combout $end
$var wire 1 ? count~4_combout $end
$var wire 1 @ count[3]~reg0_q $end
$upscope $end
$upscope $end
$enddefinitions $end
#0
$dumpvars
0!
1"
1#
0'
0&
0%
0$
x(
0)
1*
x+
1,
1-
1.
0/
00
01
02
03
04
15
16
07
08
09
0:
0;
0<
0=
0>
0?
0@
$end
#10000
1!
0#
13
05
14
0(
1?
1<
19
17
#20000
0!
03
04
1(
#30000
1!
13
14
0(
1@
1=
1:
18
07
12
11
10
1/
1$
1%
1&
1'
#40000
0!
03
04
1(
#50000
1!
13
14
0(
08
09
17
0/
0'
#60000
0!
03
04
1(
#70000
1!
13
14
0(
0:
18
07
00
1/
0&
1'
#80000
0!
03
04
1(
#90000
1!
13
14
0(
08
1;
19
17
0/
0'
0<
#100000
0!
03
04
1(
#110000
1!
13
14
0(
0=
1:
18
07
01
10
1/
0%
1&
1'
#120000
0!
03
04
1(
#130000
1!
13
14
0(
08
09
17
0/
0'
#140000
0!
03
04
1(
#150000
1!
13
14
0(
0:
18
07
00
1/
0&
1'
#160000
0!
03
04
1(
#170000
1!
13
14
0(
08
1>
0;
19
17
0/
0'
0?
1<
#180000
0!
03
04
1(
#190000
1!
13
14
0(
0@
1=
1:
18
07
02
11
10
1/
0$
1%
1&
1'
#200000
0!
03
04
1(
#210000
1!
13
14
0(
08
09
17
0/
0'
#220000
0!
03
04
1(
#230000
1!
13
14
0(
0:
18
07
00
1/
0&
1'
#240000
0!
03
04
1(
#250000
1!
13
14
0(
08
1;
19
17
0/
0'
0<
#260000
0!
03
04
1(
#270000
1!
13
14
0(
0=
1:
18
07
01
10
1/
0%
1&
1'
#280000
0!
03
04
1(
#290000
1!
13
14
0(
08
09
17
0/
0'
#300000
0!
03
04
1(
#310000
1!
13
14
0(
0:
18
07
00
1/
0&
1'
#320000
0!
03
04
1(
#330000
1!
13
14
0(
08
0>
0;
19
17
0/
0'
1?
1<
#340000
0!
03
04
1(
#350000
1!
13
14
0(
1@
1=
1:
18
07
12
11
10
1/
1$
1%
1&
1'
#360000
0!
03
04
1(
#370000
1!
13
14
0(
08
09
17
0/
0'
#380000
0!
03
04
1(
#390000
1!
13
14
0(
0:
18
07
00
1/
0&
1'
#400000
0!
03
04
1(
#410000
1!
13
14
0(
08
1;
19
17
0/
0'
0<
#420000
0!
03
04
1(
#430000
1!
13
14
0(
0=
1:
18
07
01
10
1/
0%
1&
1'
#440000
0!
03
04
1(
#450000
1!
13
14
0(
08
09
17
0/
0'
#460000
0!
03
04
1(
#470000
1!
13
14
0(
0:
18
07
00
1/
0&
1'
#480000
0!
03
04
1(
#490000
1!
13
14
0(
08
1>
0;
19
17
0/
0'
0?
1<
#500000
0!
03
04
1(
#510000
1!
13
14
0(
0@
1=
1:
18
07
02
11
10
1/
0$
1%
1&
1'
#520000
0!
03
04
1(
#530000
1!
13
14
0(
08
09
17
0/
0'
#540000
0!
03
04
1(
#550000
1!
13
14
0(
0:
18
07
00
1/
0&
1'
#560000
0!
03
04
1(
#570000
1!
13
14
0(
08
1;
19
17
0/
0'
0<
#580000
0!
03
04
1(
#590000
1!
13
14
0(
0=
1:
18
07
01
10
1/
0%
1&
1'
#600000
0!
03
04
1(
#610000
1!
13
14
0(
08
09
17
0/
0'
#620000
0!
03
04
1(
#630000
1!
13
14
0(
0:
18
07
00
1/
0&
1'
#640000
0!
03
04
1(
#650000
1!
13
14
0(
08
0>
0;
19
17
0/
0'
1?
1<
#660000
0!
03
04
1(
#670000
1!
13
14
0(
1@
1=
1:
18
07
12
11
10
1/
1$
1%
1&
1'
#680000
0!
03
04
1(
#690000
1!
13
14
0(
08
09
17
0/
0'
#700000
0!
03
04
1(
#710000
1!
13
14
0(
0:
18
07
00
1/
0&
1'
#720000
0!
03
04
1(
#730000
1!
13
14
0(
08
1;
19
17
0/
0'
0<
#740000
0!
03
04
1(
#750000
1!
13
14
0(
0=
1:
18
07
01
10
1/
0%
1&
1'
#760000
0!
03
04
1(
#770000
1!
13
14
0(
08
09
17
0/
0'
#780000
0!
03
04
1(
#790000
1!
13
14
0(
0:
18
07
00
1/
0&
1'
#800000
0!
03
04
1(
#810000
1!
13
14
0(
08
1>
0;
19
17
0/
0'
0?
1<
#820000
0!
03
04
1(
#830000
1!
13
14
0(
0@
1=
1:
18
07
02
11
10
1/
0$
1%
1&
1'
#840000
0!
03
04
1(
#850000
1!
13
14
0(
08
09
17
0/
0'
#860000
0!
03
04
1(
#870000
1!
13
14
0(
0:
18
07
00
1/
0&
1'
#880000
0!
03
04
1(
#890000
1!
13
14
0(
08
1;
19
17
0/
0'
0<
#900000
0!
03
04
1(
#910000
1!
13
14
0(
0=
1:
18
07
01
10
1/
0%
1&
1'
#920000
0!
03
04
1(
#930000
1!
13
14
0(
08
09
17
0/
0'
#940000
0!
03
04
1(
#950000
1!
13
14
0(
0:
18
07
00
1/
0&
1'
#960000
0!
03
04
1(
#970000
1!
13
14
0(
08
0>
0;
19
17
0/
0'
1?
1<
#980000
0!
03
04
1(
#990000
1!
13
14
0(
1@
1=
1:
18
07
12
11
10
1/
1$
1%
1&
1'
