0921/HW3/simulation/qsim/hw3.msim.vcd
$comment
	File created using the following command:
		vcd file hw3.msim.vcd -direction
$end
$date
	Wed Sep 21 11:25:40 2022
$end
$version
	ModelSim Version 10.1d
$end
$timescale
	1ps
$end
$scope module hw3_vlg_vec_tst $end
$var reg 1 ! CLK $end
$var reg 1 " RST $end
$var reg 1 # up $end
$var wire 1 $ count [3] $end
$var wire 1 % count [2] $end
$var wire 1 & count [1] $end
$var wire 1 ' count [0] $end
$var wire 1 ( sampler $end
$scope module i1 $end
$var wire 1 ) gnd $end
$var wire 1 * vcc $end
$var wire 1 + unknown $end
$var tri1 1 , devclrn $end
$var tri1 1 - devpor $end
$var tri1 1 . devoe $end
$var wire 1 / count[0]~output_o $end
$var wire 1 0 count[1]~output_o $end
$var wire 1 1 count[2]~output_o $end
$var wire 1 2 count[3]~output_o $end
$var wire 1 3 CLK~input_o $end
$var wire 1 4 CLK~inputclkctrl_outclk $end
$var wire 1 5 up~input_o $end
$var wire 1 6 RST~input_o $end
$var wire 1 7 count~0_combout $end
$var wire 1 8 count[0]~reg0_q $end
$var wire 1 9 count~1_combout $end
$var wire 1 : count[1]~reg0_q $end
$var wire 1 ; count~2_combout $end
$var wire 1 < count~3_combout $end
$var wire 1 = count[2]~reg0_q $end
$var wire 1 > count~4_combout $end
$var wire 1 ? count~5_combout $end
$var wire 1 @ count[3]~reg0_q $end
$upscope $end
$upscope $end
$enddefinitions $end
#0
$dumpvars
0!
0"
1#
x'
x&
x%
x$
x(
0)
1*
x+
1,
1-
1.
x/
x0
x1
x2
03
x4
15
06
x7
08
x9
0:
x;
x<
0=
x>
x?
0@
$end
#378
04
#3063
02
0$
#3084
0/
0'
#3197
00
0&
#3315
01
0%
#3498
17
#3510
0>
#3521
09
#3752
0;
#3830
0?
#4072
0<
#10000
1!
0(
#10527
13
#10917
14
#12554
18
#12923
07
#13067
19
#15715
1/
1'
#20000
0!
1(
#20701
03
#21079
04
#30000
1!
0(
#30527
13
#30917
14
#32554
08
1:
#32907
17
#32923
09
#33119
19
#35638
0/
0'
#35839
10
1&
#40000
0!
1(
#40701
03
#41079
04
#50000
1!
0(
#50527
13
#50917
14
#52554
18
#52923
07
#53057
09
#53181
1;
#53487
1<
#55715
1/
1'
#60000
0!
1(
#60701
03
#61079
04
#70000
1!
0(
#70527
13
#70917
14
#72554
08
0:
1=
#72907
19
17
#73109
09
#75638
0/
0'
#75751
00
0&
#75959
11
1%
#80000
0!
1(
#80701
03
#81079
04
#90000
1!
0(
#90527
13
#90917
14
#92554
18
#92923
07
#93067
19
#95715
1/
1'
#100000
0!
1(
#100701
03
#101079
04
#110000
1!
0(
#110527
13
#110917
14
#112554
08
1:
#112907
17
#112923
09
#113119
19
#115638
0/
0'
#115839
10
1&
#120000
0!
1(
#120701
03
#121079
04
#130000
1!
0(
#130527
13
#130917
14
#132554
18
#132923
07
#133042
1>
#133057
09
#133199
0;
#133348
1?
#133519
0<
#135715
1/
1'
#140000
0!
1(
#140701
03
#141079
04
#150000
1!
0(
#150527
13
#150917
14
#152554
08
0:
0=
1@
#152907
19
17
#152923
0?
#153109
09
#153116
0>
#153446
1?
#155638
0/
0'
#155700
12
1$
#155751
00
0&
#155869
01
0%
#160000
0!
1(
#160701
03
#161079
04
#170000
1!
0(
#170527
13
#170917
14
#172554
18
#172923
07
#173067
19
#175715
1/
1'
#180000
0!
1(
#180701
03
#181079
04
#190000
1!
0(
#190527
13
#190917
14
#192554
08
1:
#192907
17
#192923
09
#193119
19
#195638
0/
0'
#195839
10
1&
#200000
0!
1(
#200701
03
#201079
04
#210000
1!
0(
#210527
13
#210917
14
#212554
18
#212923
07
#213057
09
#213181
1;
#213487
1<
#215715
1/
1'
#220000
0!
1(
#220701
03
#221079
04
#230000
1!
0(
#230527
13
#230917
14
#232554
08
0:
1=
#232907
19
17
#233109
09
#235638
0/
0'
#235751
00
0&
#235959
11
1%
#240000
0!
1(
#240701
03
#241079
04
#250000
1!
0(
#250527
13
#250917
14
#252554
18
#252923
07
#253067
19
#255715
1/
1'
#260000
0!
1(
#260701
03
#261079
04
#270000
1!
0(
#270527
13
#270917
14
#272554
08
1:
#272907
17
#272923
09
#273119
19
#275638
0/
0'
#275839
10
1&
#280000
0!
1(
#280701
03
#281079
04
#290000
1!
0(
#290527
13
#290917
14
#292554
18
#292923
07
#293042
1>
#293057
09
#293199
0;
#293338
0?
#293519
0<
#295715
1/
1'
#300000
0!
1(
#300701
03
#301079
04
#310000
1!
0(
#310527
13
#310917
14
#312554
08
0:
0=
0@
#312907
1?
19
17
#313109
09
#313116
0>
#313436
0?
#315617
02
0$
#315638
0/
0'
#315751
00
0&
#315869
01
0%
#320000
0!
1(
#320701
03
#321079
04
#330000
1!
0(
#330527
13
#330917
14
#332554
18
#332923
07
#333067
19
#335715
1/
1'
#340000
0!
1(
#340701
03
#341079
04
#350000
1!
0(
#350527
13
#350917
14
#352554
08
1:
#352907
17
#352923
09
#353119
19
#355638
0/
0'
#355839
10
1&
#360000
0!
1(
#360701
03
#361079
04
#370000
1!
0(
#370527
13
#370917
14
#372554
18
#372923
07
#373057
09
#373181
1;
#373487
1<
#375715
1/
1'
#380000
0!
1(
#380701
03
#381079
04
#390000
1!
0(
#390527
13
#390917
14
#392554
08
0:
1=
#392907
19
17
#393109
09
#395638
0/
0'
#395751
00
0&
#395959
11
1%
#400000
0#
0!
1(
#400681
05
#400701
03
#401079
04
#404475
19
#404704
0;
#405024
0<
#410000
1!
0(
#410527
13
#410917
14
#412554
18
1:
0=
#412923
09
07
#413067
19
#415715
1/
1'
#415839
10
1&
#415869
01
0%
#420000
0!
1(
#420701
03
#421079
04
#430000
1!
0(
#430527
13
#430917
14
#432554
08
#432907
17
#433109
09
#435638
0/
0'
#440000
0!
1(
#440701
03
#441079
04
#450000
1!
0(
#450527
13
#450917
14
#452554
18
0:
#452907
19
#452923
07
#453057
09
#455715
1/
1'
#455751
00
0&
#460000
0!
1(
#460701
03
#461079
04
#470000
1!
0(
#470527
13
#470917
14
#472554
08
#472907
17
#473115
1>
#473119
19
#473260
1;
#473421
1?
#473566
1<
#475638
0/
0'
#480000
0!
1(
#480701
03
#481079
04
#490000
1!
0(
#490527
13
#490917
14
#492554
18
1:
1=
1@
#492923
0?
09
07
#493043
0>
#493067
19
#493373
1?
#495700
12
1$
#495715
1/
1'
#495839
10
1&
#495959
11
1%
#500000
0!
1(
#500701
03
#501079
04
#510000
1!
0(
#510527
13
#510917
14
#512554
08
#512907
17
#513109
09
#515638
0/
0'
#520000
0!
1(
#520701
03
#521079
04
#530000
1!
0(
#530527
13
#530917
14
#532554
18
0:
#532907
19
#532923
07
#533057
09
#535715
1/
1'
#535751
00
0&
#540000
0!
1(
#540701
03
#541079
04
#550000
1!
0(
#550527
13
#550917
14
#552554
08
#552907
17
#553119
19
#553278
0;
#553598
0<
#555638
0/
0'
#560000
0!
1(
#560701
03
#561079
04
#570000
1!
0(
#570527
13
#570917
14
#572554
18
1:
0=
#572923
09
07
#573067
19
#575715
1/
1'
#575839
10
1&
#575869
01
0%
#580000
0!
1(
#580701
03
#581079
04
#590000
1!
0(
#590527
13
#590917
14
#592554
08
#592907
17
#593109
09
#595638
0/
0'
#600000
0!
1(
#600701
03
#601079
04
#610000
1!
0(
#610527
13
#610917
14
#612554
18
0:
#612907
19
#612923
07
#613057
09
#615715
1/
1'
#615751
00
0&
#620000
0!
1(
#620701
03
#621079
04
#630000
1!
0(
#630527
13
#630917
14
#632554
08
#632907
17
#633115
1>
#633119
19
#633260
1;
#633411
0?
#633566
1<
#635638
0/
0'
#640000
0!
1(
#640701
03
#641079
04
#650000
1!
0(
#650527
13
#650917
14
#652554
18
1:
1=
0@
#652907
1?
#652923
09
07
#653043
0>
#653067
19
#653363
0?
#655617
02
0$
#655715
1/
1'
#655839
10
1&
#655959
11
1%
#660000
0!
1(
#660701
03
#661079
04
#670000
1!
0(
#670527
13
#670917
14
#672554
08
#672907
17
#673109
09
#675638
0/
0'
#680000
0!
1(
#680701
03
#681079
04
#690000
1!
0(
#690527
13
#690917
14
#692554
18
0:
#692907
19
#692923
07
#693057
09
#695715
1/
1'
#695751
00
0&
#700000
0!
1(
#700701
03
#701079
04
#710000
1!
0(
#710527
13
#710917
14
#712554
08
#712907
17
#713119
19
#713278
0;
#713598
0<
#715638
0/
0'
#720000
0!
1(
#720701
03
#721079
04
#730000
1!
0(
#730527
13
#730917
14
#732554
18
1:
0=
#732923
09
07
#733067
19
#735715
1/
1'
#735839
10
1&
#735869
01
0%
#740000
0!
1(
#740701
03
#741079
04
#750000
1!
0(
#750527
13
#750917
14
#752554
08
#752907
17
#753109
09
#755638
0/
0'
#760000
0!
1(
#760701
03
#761079
04
#770000
1!
0(
#770527
13
#770917
14
#772554
18
0:
#772907
19
#772923
07
#773057
09
#775715
1/
1'
#775751
00
0&
#780000
0!
1(
#780701
03
#781079
04
#790000
1!
0(
#790527
13
#790917
14
#792554
08
#792907
17
#793115
1>
#793119
19
#793260
1;
#793421
1?
#793566
1<
#795638
0/
0'
#800000
1#
0!
1(
#800507
15
#800701
03
#801079
04
#804017
0>
#804028
09
#804259
0;
#804337
0?
#804579
0<
#810000
1!
0(
#810527
13
#810917
14
#812554
18
#812923
07
#813067
19
#815715
1/
1'
#820000
0!
1(
#820701
03
#821079
04
#830000
1!
0(
#830527
13
#830917
14
#832554
08
1:
#832907
17
#832923
09
#833119
19
#835638
0/
0'
#835839
10
1&
#840000
0!
1(
#840701
03
#841079
04
#850000
1!
0(
#850527
13
#850917
14
#852554
18
#852923
07
#853057
09
#853181
1;
#853487
1<
#855715
1/
1'
#860000
0!
1(
#860701
03
#861079
04
#870000
1!
0(
#870527
13
#870917
14
#872554
08
0:
1=
#872907
19
17
#873109
09
#875638
0/
0'
#875751
00
0&
#875959
11
1%
#880000
0!
1(
#880701
03
#881079
04
#890000
1!
0(
#890527
13
#890917
14
#892554
18
#892923
07
#893067
19
#895715
1/
1'
#900000
0!
1(
#900701
03
#901079
04
#910000
1!
0(
#910527
13
#910917
14
#912554
08
1:
#912907
17
#912923
09
#913119
19
#915638
0/
0'
#915839
10
1&
#920000
0!
1(
#920701
03
#921079
04
#930000
1!
0(
#930527
13
#930917
14
#932554
18
#932923
07
#933042
1>
#933057
09
#933199
0;
#933348
1?
#933519
0<
#935715
1/
1'
#940000
0!
1(
#940701
03
#941079
04
#950000
1!
0(
#950527
13
#950917
14
#952554
08
0:
0=
1@
#952907
19
17
#952923
0?
#953109
09
#953116
0>
#953446
1?
#955638
0/
0'
#955700
12
1$
#955751
00
0&
#955869
01
0%
#960000
0!
1(
#960701
03
#961079
04
#970000
1!
0(
#970527
13
#970917
14
#972554
18
#972923
07
#973067
19
#975715
1/
1'
#980000
0!
1(
#980701
03
#981079
04
#990000
1!
0(
#990527
13
#990917
14
#992554
08
1:
#992907
17
#992923
09
#993119
19
#995638
0/
0'
#995839
10
1&
